AC.1/Guiao10/simulation/qsim/mips_single_cycle.msim.vcd
$comment
	File created using the following command:
		vcd file mips_single_cycle.msim.vcd -direction
$end
$date
	Sun Nov 12 23:23:30 2017
$end
$version
	ModelSim Version 10.4b
$end
$timescale
	1ps
$end

$scope module Mux2N_vlg_vec_tst $end
$var reg 5 ! oper0 [4:0] $end
$var reg 5 " oper1 [4:0] $end
$var reg 1 # sel $end
$var wire 1 $ muxOut [4] $end
$var wire 1 % muxOut [3] $end
$var wire 1 & muxOut [2] $end
$var wire 1 ' muxOut [1] $end
$var wire 1 ( muxOut [0] $end

$scope module i1 $end
$var wire 1 ) gnd $end
$var wire 1 * vcc $end
$var wire 1 + unknown $end
$var tri1 1 , devclrn $end
$var tri1 1 - devpor $end
$var tri1 1 . devoe $end
$var wire 1 / muxOut[0]~output_o $end
$var wire 1 0 muxOut[1]~output_o $end
$var wire 1 1 muxOut[2]~output_o $end
$var wire 1 2 muxOut[3]~output_o $end
$var wire 1 3 muxOut[4]~output_o $end
$var wire 1 4 oper1[0]~input_o $end
$var wire 1 5 oper0[0]~input_o $end
$var wire 1 6 sel~input_o $end
$var wire 1 7 muxOut~0_combout $end
$var wire 1 8 oper1[1]~input_o $end
$var wire 1 9 oper0[1]~input_o $end
$var wire 1 : muxOut~1_combout $end
$var wire 1 ; oper1[2]~input_o $end
$var wire 1 < oper0[2]~input_o $end
$var wire 1 = muxOut~2_combout $end
$var wire 1 > oper1[3]~input_o $end
$var wire 1 ? oper0[3]~input_o $end
$var wire 1 @ muxOut~3_combout $end
$var wire 1 A oper1[4]~input_o $end
$var wire 1 B oper0[4]~input_o $end
$var wire 1 C muxOut~4_combout $end
$upscope $end
$upscope $end
$enddefinitions $end
#0
$dumpvars
b11011 !
b1100 "
0#
1(
1'
0&
1%
1$
0)
1*
x+
1,
1-
1.
1/
10
01
12
13
04
15
06
17
08
19
1:
1;
0<
0=
1>
1?
1@
0A
1B
1C
$end
#70000
b10011 !
b10111 !
b100 "
b0 "
b10 "
18
0;
0>
1<
0?
1=
0@
02
11
1&
0%
#140000
b10110 !
b11 "
b11110 !
b1 "
14
08
05
1?
07
1@
12
0/
0(
1%
#210000
b11100 !
1#
b11000 !
b101 "
b111 "
16
18
1;
09
0<
0C
0@
17
1/
02
03
0$
0%
1(
#280000
b11001 !
b11011 !
0#
b101 "
06
08
15
19
1C
1@
0=
01
12
13
1$
1%
0&
#350000
b1011 !
b100 "
b11 !
b0 "
b10 !
b0 !
b10 "
04
18
0;
05
09
0?
0B
07
0:
0@
0C
03
02
00
0/
0(
0'
0%
0$
#420000
b1010 "
b10000 !
b1011 "
b10001 !
b1001 "
15
1B
14
08
1>
17
1C
13
1/
1(
1$
#490000
b10011 !
b11 !
19
0B
1:
0C
03
10
1'
0$
#560000
b111 !
1#
b1 "
b110 !
b100 !
b10100 !
16
0>
05
09
1<
1B
0:
00
0'
#630000
b10001 "
b10011 "
b100 !
0B
18
1A
1C
1:
10
13
1$
1'
#700000
b1100 !
b10010 "
b10 "
b0 "
04
08
0A
1?
07
0:
0C
03
00
0/
0(
0'
0$
#770000
b1000 !
b0 !
b1 "
b10001 "
14
1A
0<
0?
17
1C
13
1/
1(
1$
#840000
b10101 "
0#
b10000 !
b10100 !
b11100 !
b101 "
06
1<
1?
1B
1;
0A
1@
1=
07
0/
11
12
1%
1&
0(
#910000
b1101 "
b1111 "
b11000 !
b10000 !
b11111 "
0<
0?
18
1>
1A
0=
0@
02
01
0&
0%
#980000
b10010 !
1#
b10 !
b110 !
b1110 !
19
1<
1?
0B
16
1:
1=
1@
17
1/
12
11
10
1'
1&
1%
1(
