AC1v2/pratica/Guioespraticas/Aula8_13/Aula1/simulation/qsim/mips_single_cycle.msim.vcd
$comment
	File created using the following command:
		vcd file mips_single_cycle.msim.vcd -direction
$end
$date
	Mon Nov 26 22:15:14 2018
$end
$version
	ModelSim Version 10.5b
$end
$timescale
	1ps
$end

$scope module ControlUnit_vlg_vec_tst $end
$var reg 6 ! OpCode [5:0] $end
$var wire 1 " ALUop [1] $end
$var wire 1 # ALUop [0] $end
$var wire 1 $ ALUsrc $end
$var wire 1 % Branch $end
$var wire 1 & Jump $end
$var wire 1 ' MemRead $end
$var wire 1 ( MemToReg $end
$var wire 1 ) MemWrite $end
$var wire 1 * RegDst $end
$var wire 1 + RegWrite $end

$scope module i1 $end
$var wire 1 , gnd $end
$var wire 1 - vcc $end
$var wire 1 . unknown $end
$var tri1 1 / devclrn $end
$var tri1 1 0 devpor $end
$var tri1 1 1 devoe $end
$var wire 1 2 RegDst~output_o $end
$var wire 1 3 Branch~output_o $end
$var wire 1 4 Jump~output_o $end
$var wire 1 5 MemRead~output_o $end
$var wire 1 6 MemWrite~output_o $end
$var wire 1 7 MemToReg~output_o $end
$var wire 1 8 ALUsrc~output_o $end
$var wire 1 9 RegWrite~output_o $end
$var wire 1 : ALUop[0]~output_o $end
$var wire 1 ; ALUop[1]~output_o $end
$var wire 1 < OpCode[4]~input_o $end
$var wire 1 = OpCode[5]~input_o $end
$var wire 1 > OpCode[0]~input_o $end
$var wire 1 ? OpCode[3]~input_o $end
$var wire 1 @ Mux2~0_combout $end
$var wire 1 A OpCode[2]~input_o $end
$var wire 1 B OpCode[1]~input_o $end
$var wire 1 C Mux2~1_combout $end
$var wire 1 D Mux4~0_combout $end
$var wire 1 E Mux9~0_combout $end
$var wire 1 F Mux7~0_combout $end
$var wire 1 G Mux7~1_combout $end
$var wire 1 H Mux8~0_combout $end
$var wire 1 I Mux5~0_combout $end
$var wire 1 J Mux5~1_combout $end
$var wire 1 K Mux3~0_combout $end
$var wire 1 L Mux3~1_combout $end
$var wire 1 M Mux1~0_combout $end
$var wire 1 N Mux1~1_combout $end
$var wire 1 O Mux0~0_combout $end
$var wire 1 P Mux0~1_combout $end
$upscope $end
$upscope $end
$enddefinitions $end
#0
$dumpvars
b0 !
0#
1"
0$
0%
0&
0'
0(
0)
1*
1+
0,
1-
x.
1/
10
11
12
03
04
05
06
07
08
19
0:
1;
0<
0=
0>
0?
1@
0A
0B
1C
0D
0E
0F
0G
0H
0I
0J
0K
0L
0M
0N
0O
0P
$end
#120000
b100000 !
b100010 !
b100011 !
1>
1B
1=
1O
1I
1F
0@
1P
1E
0C
02
14
0;
0"
1&
0*
1J
1G
0E
04
15
17
18
1$
1(
1'
0&
#220000
b101011 !
1?
1K
1H
0G
05
07
16
1L
1)
0(
0'
09
0+
#300000
b1011 !
b1001 !
b1000 !
0>
0B
0=
0K
0F
0H
06
0L
0)
19
1+
#420000
b1010 !
1B
0O
1M
0P
1N
1:
1;
1"
1#
#500000
b1110 !
b110 !
b100 !
0B
1A
0?
1O
0I
1L
1@
0J
08
09
1P
0+
0$
1D
13
0;
0"
1%
#600000
b0 !
b10 !
1B
0A
0M
1K
0L
1E
0D
03
14
19
1L
1+
1&
0%
0N
0:
09
0+
0#
#680000
b0 !
0B
0O
0K
0E
1C
12
04
0P
0L
0&
1*
19
1;
1"
1+
